Chapter 2 Data sources | Crypto vs Stock Market
…
All data collected has been observed and analyzed between 1st January 2020 and 30th April 2022.

Nota bene: Because cryptocurrency markets do not have set trading hours and do not close for holidays or weekends, we receive daily data from 12am to 11:59pm. The S&P500 and DJI, on the other hand, are only traded Monday through Friday during fixed market hours.

2.2 Data Sources:

2.2.1 Cryptocurrency Daily Price

2.2.2 S&P500 and Dow Jones Index daily Price and Volume

2.2.3 MarketCap Data of Popular Crypto Currencies

2.2.4 Twitter Data

## # A tibble: 505 × 8
##    symbol company      identifier sedol weight sector shares_held local_currency
##    <chr>  <chr>        <chr>      <chr>  <dbl> <chr>        <dbl> <chr>         
##  1 AAPL   Apple Inc.   03783310   2046… 0.0708 Infor…   164166990 USD           
##  2 MSFT   Microsoft C… 59491810   2588… 0.0598 Infor…    79394560 USD           
##  3 AMZN   Amazon.com … 02313510   2000… 0.0303 Consu…     4634297 USD           
##  4 TSLA   Tesla Inc    88160R10   B616… 0.0219 Consu…     8864530 USD           
##  5 GOOGL  Alphabet In… 02079K30   BYVY… 0.0202 Commu…     3184750 USD           
##  6 GOOG   Alphabet In… 02079K10   BYY8… 0.0187 Commu…     2941158 USD           
##  7 BRK.B  Berkshire H… 08467070   2073… 0.0165 Finan…    19392828 USD           
##  8 FB     Meta Platfo… 30303M10   B7TL… 0.0142 Commu…    24463900 USD           
##  9 NVDA   NVIDIA Corp… 67066G10   2379… 0.0140 Infor…    26472588 USD           
## 10 UNH    UnitedHealt… 91324P10   2917… 0.0132 Healt…     9978600 USD           
## # … with 495 more rows
